{
  "project_info": {
    "project_number": "586633902325",
    "firebase_url": "https://zomart.firebaseio.com",
    "project_id": "zomart",
    "storage_bucket": "zomart.appspot.com"
  },
  "client": [
    {
      "client_info": {
        "mobilesdk_app_id": "1:586633902325:android:231811a171ea0ce4ef6dbc",
        "android_client_info": {
          "package_name": "com.zomart.app"
        }
      },
      "oauth_client": [
        {
          "client_id": "586633902325-maadd91bnnv4c97m37r1dvjrpmj7849u.apps.googleusercontent.com",
          "client_type": 3
        }
      ],
      "api_key": [
        {
          "current_key": "AIzaSyDcjtMmYteIYnkZLQaqOvFHYKYFH2Jldyc"
        }
      ],
      "services": {
        "appinvite_service": {
          "other_platform_oauth_client": [
            {
              "client_id": "586633902325-maadd91bnnv4c97m37r1dvjrpmj7849u.apps.googleusercontent.com",
              "client_type": 3
            },
            {
              "client_id": "586633902325-tru6hqrel24fvsjag31k2o9fvtfib9si.apps.googleusercontent.com",
              "client_type": 2,
              "ios_info": {
                "bundle_id": "com.zomart.app"
              }
            }
          ]
        }
      }
    }
  ],
  "configuration_version": "1"
}